{
"articles": ["a", "the"],

"vowels": ["a", "e", "i", "o", "u"],

"adjectives": ["abiding","abounding","abundant","acclaimed","aching","active","adamant","addictive","adept","admired","adored","adroit","adventurous","ageless","airborne","airy","alluring","amazing","ample","ancestral","ancient","aquiline","ardent","arid","armed","artful","ascetic","assured","astounding","attendant","audacious","auspicious","authentic","avenging","avid","awakening","azure","autumn ","barren","barefoot","beautiful","baked","bedazzled","bewitching","baleful","blazing","blessed","boisterous","boundless","balmy","breathless","brooding","barbarian","barefaced","buoyant","battered","beaded","becalmed","bejewelled","beloved","benevolent","bitter","blackish","bleak","blended","blighted","blissful","blistering","blithe","bloodless","blooming","blueish","bounded","bracing","brindled","broken","brutal","burning","burgundy","candid","captivating","candid","captivating","carefree","callow","ceaseless","charismatic","capricious","charming","childlike","clandestine","cloudless","captive","compelling","complete","careless","certain","concealed","chambered","changeable","chaotic","conscious","cheerful","consoling","cosmic","chilling","crafty","civil","clever","crystalline","closed","curious","closest","cloudy","clumsy","compact","complacent","compound","compulsive","concrete","confiding","connected","consummate","countless","covered","crackling","cracking","crinkled","crowded","cursory","cutting","cynical","cyan","colourless","daily","dainty","damaged","damp","dappled","dark","darkling","darkish","darkened","darling","dazzling","dearest","decadent","decisive","decorous","decorated","deep","deepest","defiant","deft","delectable","delicate","delicious","delighted","delightful","delirious","descendent","desolate","dexterous","didactic","diffused","diligent","disappearing","discerning","distinctive","divergent","divided","docile","doleful","dormant","dozing","dreamlike","dreamless","drenched","eager","early","earnest","earthy","earthly","eastern","easy","eccentric","ecstatic","eerie","effortless","effusive","elaborate","elastic","electric","elegant","elfish","eloquent","elusive","embattled","enamored","enchanted","enchanting","enduring","enlightened","enthralling","enticing","errant","eternal","ethereal","euphoric","evasive","eventual","everlasting","exalted","expansive","exploding","extensive","exuberant","earthborn","earthbound","echoing","eclectic","effulgent","elfin","elven","emerging","emergent","engaging","enraptured","fabulous","faded","fading","faint","fair","falling","familiar","fantastic","Far-off","fascinating","fascinated","fast","fathomless","faultless","favoured","fearless","fell","famed","feral","fervent","fiery","fine","firm","flaming","flawless","fleet","fleeting","flexible","flickering","flinty","floating","flowering","fluid","fluent","foaming","flying","fond","forgiven","formless","fortunate","fragile","fragrant","free","fresh","friendly","fruitful","gabled","gainly","gathering","gathered","gaudy","generous","gentle","gentler","ghostly","gifted","gilded","glacial","glaring","glassy","gleaming","glimmering","glistening","glittering","glorious","golden","graceful","gracious","greenish","greyish","guileless","habitual","hadean","halcyon","handheld","happier","hardy","harmless","harrowing","harmonious","hasty","haunting","haunted","hazel","heartfelt","heated","hectic","hidden","homebound","honest","honoured","honorable","hospitable","humble","humid","hurried","hushed","icebound","iconic","icy","ideal","idle","illicit","illuminating","illustrious","imaginary","imaginative","immaculate","immense","immeasurable","immediate","immobile","immortal","immutable","impalpable","impartial","impassive","impatient","impenetrable","imperceptible","imperial","impertinent","impervious","impetuous","impish","imponderable","impregnable","impressive","imprudent","incandescent","incautious","incessant","incisive","incomprehensible","incongruent","incongruous","incredible","indifferent","indulgent","inescapable","inevitable","inexplicable","inflammable","inky","insatiable","insightful","internal","intimate","inviolable","iron","itinerant","jaded","jaded","jagged","jealous","Jet-black","jewelled","joyful","jubilant","judicious","jurassic","just","justified","keen","key","kinder","kindly","kindred","kinetic","knowing","languid","lasting","lavish","laconic","lifelike","limber","lanky","liquid","lithe","lofty","long","late","lovely","lucid","latent","laughing","lucent","lavender","lazy","leafy","luminescent","level","luminous","lush","lilac","lustrous","limpid","listless","lyrical","lively","lonely","longing","loyal","lucky","lunar","magic","magenta","magical","magnetic","magnificent","mannered","mantled","marbled","maroon","matchless","maturing","meagre","meaningful","measured","measureless","megalithic","melancholic","mellifluous","mellow","melted","melting","merciful","merry","metallic","meteoric","milder","mindful","mindless","miraculous","mischievous","monumental","moonlit","moonless","moral","motionless","moveable","muted","mystical","mystic ","mythic","mystifying","mythical","mysterious","nameless","nascent","natural","nearby","nebulous","needless","neverending","new","nightly","noble","nocturnal","noiseless","Northern","noted","nourishing","novel","oblivious","occasional","olive","opalescent","opaline","open","openhearted","opulent","orangish","ornate","otherworldly","outbound","outstretched","overladen","overt","ownerless","pagan","painless","painted","pale","palladian","palmy","passionate","pastel","pastoral","patent","patient","patterned","peaceful","pearlescent","pearly","peerless","penumbral","perilous","perpetual","perplexing","pertinent","petulant","phenomenal","phosphorescent","precious","preternatural","prevailing","priceless","proud","primal","primordial","pristine","protean","proverbial","prudent","puckish","quadrate","quaint","quantified","queenly","quickset","quicksilver","quirky","quivering","quixotic","quizzical","quiet","quiescent","Quick-witted","radiant","ragged","raging","rambling","rapid","rapturous","rare","rash","rebellious","recent","reckless","redemptive","reflective","refreshing","relenting","relentless","remaining","remorseless","residual","resistant","resonant","resplendant","restless","rhythmic","righteous","rustic","sacred","saddened","sagacious","sainted","salient","sandy","sardonic","satin","satirical","saturated","savoury","savage","scarce","scenic","sceptred","scorching","scraggly","scythian","seamless","seasoned","secret","seismic","sensitive","sentient","serene","settled","shadowy","shaded","shadowed","shattered","sheltered","silent","silvan","silvery","sleeping","slumberous","smiling","smooth","solemn","solitary","sombre","soothing","sorrowful","soulful","sparse","sparkling","spectral","speckled","spidery","spirited","splattered","splendid","spoken","sprawling","starlit","stately","steady","stealthy","stony","stormy","stormproof","stormbound","strange","striking","sublime","substantial","subterranian","subtle","succinct","sudden","suitable","sultry","sunbaked","sunstruck","superior","supernatural","supple","surprising","surreal","sylvan","spring","summer","tacit","taciturn","tactile","talented","taismanic","tamed","tangerine","tantalising","tapered","tarnished","tattered","taunting","tawny","teasing","teeming","telltale","temperate","tempestuous","tempting","tenacious","tender","tentative","tepid","terrestrial","thankful","thermal","thickening","thirsty","thorny","threadbare","thundery","thunderous","tidal","tigerish","timeless","timely","timorous","titanic","torrential","totemic","touching","tranquil","transcendent","transformed","transitory","transparent","troubled","twilight","tyrannical","ultimate","ultramarine","untraviolet","umbellar","umbellate","unabashed","unacknowledged","unadorned","unaged","unalloyed","unapologetic","unassailable","unbeholden","unblinking","unborn","unbridled","unburdened","uncertain","uncharted","unclouded","unconscious","unconstrained","uncovered","uncut","undaunted","undefined","undreamed","undying","unending","unerring","unfading","unfinished","unforgiving","unfurrowed","ungodly","unheard","unknown","unmade","unnamed","unreformed","unremitting","unrestrained","unruly","unseen","unsure","unsuspecting","untamed","untried","unused","unwitting","vacant","vagabond","valid","valued","valorous","vaporous","variable","varied","vast","veiled","velvet","venerable","venturesome","vernal","vestal","vexed","vibrant","vicarious","viewless","violet","virtuous","visible","vivid","voiceless","vulpine","waiting","wakeful","waking","wandering","wanton","warm","warming","watching","watchful","waterborne","waterworn","wavelike","waving","wavering","waxen","wayward","weary","welcoming","Well-honed","Well-worn","whimsical","wholesom","Wide-eyed","willing","winning","winter","wintery","wise","wispy","wistful","withering","wolfish","wondrous","wordless","worthy","wrinkled","xenial","xanthous","xiphoid","xenomorphous","yearning","yellow","yielding","yellowish","young","youthful","yawning","zealous","zestful","zonal"],

"nouns": ["ability","abode","action","afternoon","age","air","alarms","animal","answer","appearance","apple","arrow","atoms","bait","band","bands","base","bases","battle","bay","bays","beam","beams","beast","beauty","bed","bee","beer","bees","beginning","belief","bell","bend","bird","birds","bite","bites","bitterness","blade","blades","blame","blanket","blood","blue","boast","boat","bold","bone","bones","book","boundary","bow","bower","bowers","bowl","brain","brand","brands","bravery","bread","breath","bridge","building","cage","care","case","cases","castle","cave","caves","chain","chance","chances","chart","chase","chases","child","childhood","choice","choices","claim","claims","clarity","clay","clear","climb","clock","cloth","cloud","clouds","clue","coast","cold","comb","comfort","confusion","core","country","crest","cries","crone","crones","crow","crowd","crowds","crust","cry","dance","dances","dark","dawn","day","days","deep","dell","dew","dock","doe","dome","door","dragon","dream","dreams","dune","dust ","end","estate","eye","eyes","face","faces","fair","falcon","farce","fate","fear","fee","fees","few","fight","fights","fish","fishes","fist","flame","flames","flies","flight","flights","flood","floor","flow","flower","flowers","fly","foam","foe","forest","frame","frames","freedom","friend ","game","games","gate","gaze","ghost","glade","glades","glance","glances","glass","goal","gold","grass","grave","graves","grip","ground","growth","guide","hand","hands","happiness","haste","haze","head","heart","hill","hole","home","host","hound","hour","hours","hue","idea","joy","justice","key ","keys","kindness","king","kings","knife","knives","knock","lair","land","lands","lark","law","lead","leap","lee","lees","lie","lies","life","life","light","lights","lip","list","lives","lock","loon","lore","loss","love","luck","luxury","mage","mane","margin","mark","maze","medicine","mercy","mill","mirror","mist","moon","moonlight","moth","mound","mud","music","name","names","necklace","night","nights","noon","notebook","ocean","omen","owl","pace","paces","page","pain","panther","paper","park","part","pass","patience","peace","pen","phantom","pipes","place","places","plate","play","plays","pleasure","poetry","power","powers","pride","prize","pyramid","quill","rage","rain","rainbow","ray","rays","realm","rhyme","riches","ride","right","rights","rill","ring","rings","rip","road","roar","rock","role","row","rust","sage","sand","sands","scheme","score","scream","screams","sea","seas","serpent","shade","shades","shell","shock","shore","show","shroud","shrouds","side","sigh","sighs","sight","sights","sill","sip","skies","sky","slate","slave","slaves","sleep","slip","slumber","smile","smoke","snow","solitude","sorrow","soul","sound","space","spaces","spark","sparrow","spell","sphere","spirit","spring","springs","stain","stair","stance","stances","stare","sting","stings","stone","stones","store","storm","stream","streams","sunlight","swan","taste","team","teams","tear","tear","temple","thaw","thing","things","thought","three","thrill","thrust","tide","tie","ties","time","toll","tone","tones","tower","towers","trace","traces","tree","trees","tries","trip","trouble","trust","truth","try","tune","tunnel","twilight","twist","vase","vein","view","village","voice","voice","wage","wait","waste","water","wave","waves","way","ways","well","whip","wild","will","wing","wings","wisdom","wish","wishes","wit","wolf","word","words"],

"verb_ing": ["absorbing","accepting","acquiring","admiring","answering","approaching","attending","attracting","avoiding","awaking","banishing","bearing","becoming","beholding","bending","betraying","binding","biting","blessing","breaking","bringing","brushing","burning","burying","calling","capturing","caressing","carrying","carving","catching","changing","chasing","cleaning","climbing","closing","clothing","collecting","confining","connecting","conquering","consecrating","conserving","consoling","containing","covering","craving","crossing","dazzling","disturbing","dividing","dreaming","empowering","enduring","enjoying","enlightening","entering","envying","erasing","escaping","facing","feeding","fighting","filling","finding","finishing","fixing","fleeing","following","forbidding","foretelling","forgetting","forgiving","guiding","healing","hearing","helping","hiding","holding","hunting","hurrying","igniting","ignoring","illuminating","imagining","kissing","lighting","measuring","meeting","melting","nourishing","nursing","obeying","observing","opening","owning","painting","pleasing","protecting","pulling","purifying","receiving","reflecting","regretting","renewing","repairing","resembling","ruling","saluting","satisfying","saturating","saving","scattering","searching","seeing","seeking","seizing","shaking","shaping","shattering","shunning","soothing","stealing","summoning","surrounding","surveying","surviving","sweeping","tasting","tearing","tempting","tending","thanking","touching","trusting","waking","wandering","warning","watching","watering","welcoming"],

"verb_s": ["absorbs","accepts","acquires","admires","answers","approaches","attends","attracts","avoids","awakes","banishes","bears","becomes","beholds","bends","betrays","binds","bites","blesses","breaks","brings","brushes","burns","buries","calls","captures","caresses","carries","carves","catches","changes","chases","cleans","climbs","closes","clothes","collects","confines","connects","conquers","consecrates","conserves","consoles","contains","covers","craves","crosses","dazzles","disturbs","divides","dreams","empowers","endures","enjoys","enlightens","enters","envies","erases","escapes","faces","feeds","fights","fills","finds","finishes","fixes","flees","follows","forbids","foretells","forgets","forgives","guides","heals","hears","helps","hides","holds","hunts","hurries","ignites","ignores","illuminates","imagines","kisses","lights","measures","meets","melts","nourishes","nurses","obeys","observes","opens","owns","paints","pleases","protects","pulls","purifies","receives","reflects","regrets","renews","repairs","resembles","rules","salutes","satisfies","saturates","saves","scatters","searches","sees","seeks","seizes","shakes","shapes","shatters","shuns","soothes","steals","summons","surrounds","surveys","survives","sweeps","tastes","tears","tempts","tends","thanks","touches","trusts","wakes","wanders","warns","watches","waters","welcomes"],

"nounRhymes": [
["age","cage","mage","page","rage","sage","wage"],
["air","fair","lair","stair","tear","stare"],
["bay","clay","day","play","ray","way"],
["bays","clays","days","plays","rays","ways","gaze","haze","maze"],
["beam","dream","scream","stream","team","scheme"],
["beams","dreams","screams","streams","teams"],
["bite","fight","light","night","right","sight","flight"],
["bites","fights","lights","nights","rights","sights","flights"],
["blade","glade","shade"],
["blades","glades","shades"],
["blame","flame","frame","game","name","claim"],
["flames","frames","games","names","claims"],
["blood","flood","mud"],
["blue","clue","dew","few","hue","view"],
["bold","cold","gold"],
["bone","crone","stone","tone"],
["bones","crones","stones","tones"],
["brain","chain","rain"," mane","pain","stain","vein"],
["brand","band","hand","land","sand"],
["brands","bands","hands","lands","sands"],
["bread","bed","head","lead"],
["chance","dance","glance","stance"],
["chances","dances","glances","stances"],
["chart","heart","part"],
["climb","time","rhyme"],
["cloud","crowd","shroud"],
["clouds","crowds","shrouds"],
["coast","boast","ghost","host"],
["cry","fly","lie","sigh","sky","tie","eye","try"],
["cries","flies","lies","sighs","skies","ties","eyes","tries","prize"],
["dark","lark","mark","park","spark"],
["deep","leap","sleep"],
["dust","crust","rust","trust","thrust"],
["face","pace","place","space","trace","base","case","chase"],
["faces","paces","places","spaces","traces","bases","cases","chases"],
["flow","show","snow","bow","crow","doe","foe","row"],
["friend","bend","end"],
["glass","farce","grass","pass"],
["ground","hound","mound","sound"],
["hill","mill","quill","rill","sill","thrill","will"],
["home","comb","dome","foam"],
["hour","bower","flower","power","tower"],
["hours","bowers","flowers","powers","towers"],
["key","bee","fee","lee","sea","three","tree"],
["keys","bees","fees","lees","seas","trees"],
["lip","grip","rip","sip","trip","whip","slip"],
["moon","dune","loon","noon","tune"],
["ring","king","sting","thing","wing","spring"],
["rings","kings","stings","things","wings","springs"],
["score","core","door","floor","lore","law","roar","store","thaw","shore"],
["shell","bell","dell","well","spell"],
["shock","clock","dock","lock","knock","rock"],
["soul","bowl","goal","hole","role","toll"],
["sphere","beer","clear","fear","tear"],
["tide","guide","pride","ride","side"],
["twist","fist","list","mist"],
["wait","bait","fate","gate","plate","slate"],
["waste","haste","taste"],
["wave","cave","grave","slave"],
["waves","caves","graves","slaves"]
]
}